{
  "project_info": {
    "project_number": "848831595664",
    "project_id": "ranchi-9bd00",
    "storage_bucket": "ranchi-9bd00.appspot.com"
  },
  "client": [
    {
      "client_info": {
        "mobilesdk_app_id": "1:848831595664:android:5eca05766576e5aa5e8415",
        "android_client_info": {
          "package_name": "com.GamePower7.Ranchi"
        }
      },
      "oauth_client": [
        {
          "client_id": "848831595664-d9cjv7ga21a6g7dtvh0qq5i0nrleolj2.apps.googleusercontent.com",
          "client_type": 3
        }
      ],
      "api_key": [
        {
          "current_key": "AIzaSyAWwGB57bOG6lnXmdaONv7iWhN3AZvYq2U"
        }
      ],
      "services": {
        "appinvite_service": {
          "other_platform_oauth_client": [
            {
              "client_id": "848831595664-d9cjv7ga21a6g7dtvh0qq5i0nrleolj2.apps.googleusercontent.com",
              "client_type": 3
            },
            {
              "client_id": "848831595664-hj5m84lerga1vhrelvtlu77v0ppebr73.apps.googleusercontent.com",
              "client_type": 2,
              "ios_info": {
                "bundle_id": "com.gamepower7.ranshi"
              }
            }
          ]
        }
      }
    }
  ],
  "configuration_version": "1"
}